<?xml version="1.0" encoding="UTF-8" standalone="no"?>
<!-- Created with Inkscape (http://www.inkscape.org/) -->

<svg
   xmlns:dc="http://purl.org/dc/elements/1.1/"
   xmlns:cc="http://creativecommons.org/ns#"
   xmlns:rdf="http://www.w3.org/1999/02/22-rdf-syntax-ns#"
   xmlns:svg="http://www.w3.org/2000/svg"
   xmlns="http://www.w3.org/2000/svg"
   xmlns:sodipodi="http://sodipodi.sourceforge.net/DTD/sodipodi-0.dtd"
   xmlns:inkscape="http://www.inkscape.org/namespaces/inkscape"
   width="74.117088mm"
   height="41.401115mm"
   viewBox="0 0 74.117088 41.401115"
   version="1.1"
   id="svg6174"
   inkscape:version="0.92.1 r15371"
   sodipodi:docname="cloud-2.svg">
  <defs
     id="defs6168" />
  <sodipodi:namedview
     id="base"
     pagecolor="#ffffff"
     bordercolor="#666666"
     borderopacity="1.0"
     inkscape:pageopacity="0.0"
     inkscape:pageshadow="2"
     inkscape:zoom="0.35"
     inkscape:cx="-1934.2219"
     inkscape:cy="923.95267"
     inkscape:document-units="mm"
     inkscape:current-layer="layer1"
     showgrid="false"
     fit-margin-top="0"
     fit-margin-left="0"
     fit-margin-right="0"
     fit-margin-bottom="0" />
  <metadata
     id="metadata6171">
    <rdf:RDF>
      <cc:Work
         rdf:about="">
        <dc:format>image/svg+xml</dc:format>
        <dc:type
           rdf:resource="http://purl.org/dc/dcmitype/StillImage" />
        <dc:title></dc:title>
      </cc:Work>
    </rdf:RDF>
  </metadata>
  <g
     inkscape:label="Layer 1"
     inkscape:groupmode="layer"
     id="layer1"
     transform="translate(-395.34621,-351.8947)">
    <g
       transform="matrix(1.3229166,0,0,1.3229166,327.45951,597.76808)"
       id="g802">
      <g
         transform="scale(0.26458333)"
         id="use800">
        <path
           style="fill:#c9dee5;stroke:none"
           inkscape:connector-curvature="0"
           id="path6729"
           d="m 346.15,-648.45 q -2.7,-7.45 -8.6,-13.85 -10.85,-11.75 -26.25,-13.05 -0.65,0 -1.4,-0.1 -2.9,-6.85 -8.45,-12.9 -11.6,-12.55 -28.05,-13.95 -16.5,-1.35 -28.1,9.3 -8.2,7.45 -10.65,17.9 -9.15,2.3 -16.55,9.05 -12.7,11.65 -12.7,29.6 0,0.8 0.1,1.65 -3.7,0.85 -6.65,3.5 -4.9,4.55 -4.9,11.5 0,4.9 2.5,9.05 31.95,42.2 208.9,17.4 0.35,-2.35 0.35,-4.85 0,-11.85 -8.4,-20.95 -8.4,-9.15 -20.25,-10.15 -4.15,-0.3 -7.85,0.4 -2.4,-4.35 -6.05,-8.3 -7.45,-8.05 -17,-11.25 z" />
      </g>
    </g>
  </g>
</svg>
