<?xml version="1.0" encoding="UTF-8" standalone="no"?>
<!-- Created with Inkscape (http://www.inkscape.org/) -->

<svg
   xmlns:dc="http://purl.org/dc/elements/1.1/"
   xmlns:cc="http://creativecommons.org/ns#"
   xmlns:rdf="http://www.w3.org/1999/02/22-rdf-syntax-ns#"
   xmlns:svg="http://www.w3.org/2000/svg"
   xmlns="http://www.w3.org/2000/svg"
   xmlns:sodipodi="http://sodipodi.sourceforge.net/DTD/sodipodi-0.dtd"
   xmlns:inkscape="http://www.inkscape.org/namespaces/inkscape"
   width="34.475208mm"
   height="18.795689mm"
   viewBox="0 0 34.475208 18.795689"
   version="1.1"
   id="svg7311"
   inkscape:version="0.92.1 r15371"
   sodipodi:docname="car-1-green.svg">
  <defs
     id="defs7305" />
  <sodipodi:namedview
     id="base"
     pagecolor="#ffffff"
     bordercolor="#666666"
     borderopacity="1.0"
     inkscape:pageopacity="0.0"
     inkscape:pageshadow="2"
     inkscape:zoom="0.35"
     inkscape:cx="-520.56429"
     inkscape:cy="-1.6234212"
     inkscape:document-units="mm"
     inkscape:current-layer="layer1"
     showgrid="false"
     fit-margin-top="0"
     fit-margin-left="0"
     fit-margin-right="0"
     fit-margin-bottom="0" />
  <metadata
     id="metadata7308">
    <rdf:RDF>
      <cc:Work
         rdf:about="">
        <dc:format>image/svg+xml</dc:format>
        <dc:type
           rdf:resource="http://purl.org/dc/dcmitype/StillImage" />
        <dc:title></dc:title>
      </cc:Work>
    </rdf:RDF>
  </metadata>
  <g
     inkscape:label="Layer 1"
     inkscape:groupmode="layer"
     id="layer1"
     transform="translate(-21.315967,-129.60812)">
    <g
       transform="matrix(0,0.52916666,-0.52916666,0,61.1093,55.521003)"
       id="g7289">
      <path
         d="m 151.15,12.35 -1.95,0.15 -2.55,0.3 q -1.8,0.3 -2.9,1.9 -1.45,2.2 -1.45,7.2 0,2.25 0.3,5.1 l 0.45,4.85 V 32 q 0.85,12.4 -0.25,25.2 l -0.65,6 q -0.45,3.75 0.4,6 1,2.95 4.2,3.35 l 0.65,0.1 10.35,0.55 11,-0.65 q 5.6,-0.7 4.6,-9.35 l -0.7,-6 Q 171.6,44.4 172.45,32 v -0.15 l 0.5,-4.85 0.3,-5.1 q -0.05,-5 -1.5,-7.2 -1.05,-1.6 -2.85,-1.9 l -2.6,-0.3 -1.95,-0.15 -6.6,-0.3 -6.6,0.3 m -0.15,-2 6.75,-0.3 6.8,0.3 1.85,0.15 0.15,0.05 2.6,0.3 h 0.1 q 2.65,0.4 4.2,2.75 1.75,2.5 1.8,8.3 l -0.3,5.3 v 0.05 l -0.5,4.75 v 0.15 q -0.85,12.2 0.2,24.85 l 0.7,5.95 V 63 Q 176.6,73.9 169,74.55 l -11.25,0.65 -10.35,-0.55 -0.85,-0.1 h -0.05 q -5,-0.45 -6.15,-5.35 -0.6,-2.5 -0.15,-6.2 v -0.05 l 0.6,-5.9 q 1.1,-12.65 0.25,-24.9 V 32 l -0.45,-4.8 q -0.3,-2.95 -0.3,-5.3 0,-5.8 1.8,-8.3 1.6,-2.35 4.25,-2.75 h 0.05 l 2.6,-0.3 0.1,-0.05 1.85,-0.15 H 151"
         id="path406"
         inkscape:connector-curvature="0"
         style="fill:#14773d;stroke:none" />
      <path
         d="m 143.75,14.7 q 1.1,-1.6 2.9,-1.9 l 2.55,-0.3 1.95,-0.15 -5.95,3.4 -1.45,-1.05 m 20.6,-2.35 1.95,0.15 2.6,0.3 q 1.8,0.3 2.85,1.9 l -1.45,1.05 -5.95,-3.4 M 147.15,33 146.5,28.45 q -0.05,-0.6 0.4,-0.6 5.4,-1.65 10.85,-1.65 5.45,0 10.85,1.65 0.45,0 0.4,0.6 L 168.35,33 q -5,-1.2 -10.6,-1.35 -5.6,0.15 -10.6,1.35 m 0.9,24.7 0.55,-4.2 q 0.1,-0.4 0.45,-0.4 l 8.7,0.85 8.7,-0.85 q 0.45,0 0.5,0.4 l 0.6,4.2 q -4.6,1.4 -9.8,1.3 -5.2,0.1 -9.7,-1.3"
         id="path408"
         inkscape:connector-curvature="0"
         style="fill:#ffffff;stroke:none" />
      <path
         d="m 148.05,57.7 -0.65,4.2 v 7.3 q 10.25,1.7 20.7,0 v -7.3 l -0.55,-4.2 -0.6,-4.2 q -0.05,-0.4 -0.5,-0.4 l -8.7,0.85 -8.7,-0.85 q -0.35,0 -0.45,0.4 l -0.55,4.2 m 3.1,-45.35 6.6,-0.3 6.6,0.3 5.95,3.4 1.45,-1.05 q 1.45,2.2 1.5,7.2 l -0.3,5.1 -0.5,4.85 V 32 q -0.65,1.65 -1.15,3.4 -3.05,10 0.65,20.05 l 0.7,1.75 0.7,6 q 1,8.65 -4.6,9.35 l -11,0.65 -10.35,-0.55 -0.65,-0.1 q -3.2,-0.4 -4.2,-3.35 -0.85,-2.25 -0.4,-6 l 0.65,-6 0.75,-1.75 q 3.7,-10.05 0.7,-20.05 L 143.05,32 V 31.85 L 142.6,27 q -0.3,-2.85 -0.3,-5.1 0,-5 1.45,-7.2 l 1.45,1.05 5.95,-3.4 m -5.8,6.8 0.75,7.5 q 1.8,-0.75 3.7,-1.2 3.9,-1 7.95,-1.05 4.15,0.05 7.95,1.05 1.9,0.45 3.7,1.2 l 0.75,-7.5 q 0.05,-3.4 -1.95,-4.1 -2.25,-0.75 -4.75,-1.1 l -5.7,-0.3 -5.7,0.3 -4.75,1.1 q -2,0.7 -1.95,4.1 m 23,13.85 0.65,-4.55 q 0.05,-0.6 -0.4,-0.6 -5.4,-1.65 -10.85,-1.65 -5.45,0 -10.85,1.65 -0.45,0 -0.4,0.6 l 0.65,4.55 0.65,4.55 q 0.1,0.45 0.55,0.45 l 9.4,-0.85 9.5,0.85 0.45,-0.45 0.65,-4.55 m -4.8,7.6 -5.8,-0.7 -5.7,0.7 q -1.7,0.4 -1.7,2.05 v 2.95 q 0,1.7 1.7,1.7 h 11.4 q 1.7,0 1.7,-1.7 v -2.95 q 0,-1.65 -1.6,-2.05"
         id="path410"
         inkscape:connector-curvature="0"
         style="fill:#39c272;stroke:none" />
      <path
         d="m 172.45,32 q -0.85,12.4 0.2,25.2 l -0.7,-1.75 Q 168.25,45.4 171.3,35.4 171.8,33.65 172.45,32 M 142.8,57.2 q 1.1,-12.8 0.25,-25.2 l 1.2,3.4 q 3,10 -0.7,20.05 l -0.75,1.75 m 2.55,-38.05 q -0.05,-3.4 1.95,-4.1 l 4.75,-1.1 5.7,-0.3 5.7,0.3 q 2.5,0.35 4.75,1.1 2,0.7 1.95,4.1 l -0.75,7.5 q -1.8,-0.75 -3.7,-1.2 -3.8,-1 -7.95,-1.05 -4.05,0.05 -7.95,1.05 -1.9,0.45 -3.7,1.2 l -0.75,-7.5 M 168.1,61.9 v 7.3 q -10.45,1.7 -20.7,0 v -7.3 q 5.35,2.05 10.35,2.1 5,-0.05 10.35,-2.1"
         id="path412"
         inkscape:connector-curvature="0"
         style="fill:#30b668;stroke:none" />
      <path
         d="m 168.1,61.9 q -5.35,2.05 -10.35,2.1 -5,-0.05 -10.35,-2.1 l 0.65,-4.2 q 4.5,1.4 9.7,1.3 5.2,0.1 9.8,-1.3 l 0.55,4.2 m 0.25,-28.9 -0.65,4.55 -0.45,0.45 -9.5,-0.85 -9.4,0.85 q -0.45,0 -0.55,-0.45 L 147.15,33 q 5,-1.2 10.6,-1.35 5.6,0.15 10.6,1.35 m -4.8,7.6 q 1.6,0.4 1.6,2.05 v 2.95 q 0,1.7 -1.7,1.7 h -11.4 q -1.7,0 -1.7,-1.7 v -2.95 q 0,-1.65 1.7,-2.05 l 5.7,-0.7 5.8,0.7"
         id="path414"
         inkscape:connector-curvature="0"
         style="fill:#eeeeee;stroke:none" />
    </g>
  </g>
</svg>
