<?xml version="1.0" encoding="UTF-8" standalone="no"?>
<!-- Created with Inkscape (http://www.inkscape.org/) -->

<svg
   xmlns:dc="http://purl.org/dc/elements/1.1/"
   xmlns:cc="http://creativecommons.org/ns#"
   xmlns:rdf="http://www.w3.org/1999/02/22-rdf-syntax-ns#"
   xmlns:svg="http://www.w3.org/2000/svg"
   xmlns="http://www.w3.org/2000/svg"
   xmlns:sodipodi="http://sodipodi.sourceforge.net/DTD/sodipodi-0.dtd"
   xmlns:inkscape="http://www.inkscape.org/namespaces/inkscape"
   width="34.475208mm"
   height="18.795689mm"
   viewBox="0 0 34.475208 18.795689"
   version="1.1"
   id="svg6693"
   inkscape:version="0.92.1 r15371"
   sodipodi:docname="car-1-blue.svg">
  <defs
     id="defs6687" />
  <sodipodi:namedview
     id="base"
     pagecolor="#ffffff"
     bordercolor="#666666"
     borderopacity="1.0"
     inkscape:pageopacity="0.0"
     inkscape:pageshadow="2"
     inkscape:zoom="0.35"
     inkscape:cx="225.14999"
     inkscape:cy="-430.19488"
     inkscape:document-units="mm"
     inkscape:current-layer="layer1"
     showgrid="false"
     fit-margin-top="0"
     fit-margin-left="0"
     fit-margin-right="0"
     fit-margin-bottom="0" />
  <metadata
     id="metadata6690">
    <rdf:RDF>
      <cc:Work
         rdf:about="">
        <dc:format>image/svg+xml</dc:format>
        <dc:type
           rdf:resource="http://purl.org/dc/dcmitype/StillImage" />
        <dc:title></dc:title>
      </cc:Work>
    </rdf:RDF>
  </metadata>
  <g
     inkscape:label="Layer 1"
     inkscape:groupmode="layer"
     id="layer1"
     transform="translate(175.9876,-16.215251)">
    <g
       transform="matrix(0,0.52916666,-0.52916666,0,-136.19427,-31.413528)"
       id="g6671">
      <path
         d="m 92.1,13.6 q 1.6,-2.35 4.25,-2.75 h 0.05 l 2.6,-0.3 0.1,-0.05 1.85,-0.15 H 101 l 6.75,-0.3 6.8,0.3 1.85,0.15 0.15,0.05 2.6,0.3 h 0.1 q 2.65,0.4 4.2,2.75 1.75,2.5 1.8,8.3 l -0.3,5.3 v 0.05 l -0.5,4.75 v 0.15 q -0.85,12.2 0.2,24.85 l 0.7,5.95 V 63 Q 126.6,73.9 119,74.55 L 107.75,75.2 97.4,74.65 96.55,74.55 H 96.5 Q 91.5,74.1 90.35,69.2 89.75,66.7 90.2,63 v -0.05 l 0.6,-5.9 Q 91.9,44.4 91.05,32.15 V 32 L 90.6,27.2 q -0.3,-2.95 -0.3,-5.3 0,-5.8 1.8,-8.3 m 1.65,1.1 q -1.45,2.2 -1.45,7.2 0,2.25 0.3,5.1 l 0.45,4.85 V 32 Q 93.9,44.4 92.8,57.2 l -0.65,6 q -0.45,3.75 0.4,6 1,2.95 4.2,3.35 l 0.65,0.1 10.35,0.55 11,-0.65 q 5.6,-0.7 4.6,-9.35 l -0.7,-6 Q 121.6,44.4 122.45,32 v -0.15 l 0.5,-4.85 0.3,-5.1 q -0.05,-5 -1.5,-7.2 -1.05,-1.6 -2.85,-1.9 l -2.6,-0.3 -1.95,-0.15 -6.6,-0.3 -6.6,0.3 -1.95,0.15 -2.55,0.3 q -1.8,0.3 -2.9,1.9"
         id="path396"
         inkscape:connector-curvature="0"
         style="fill:#16628e;stroke:none" />
      <path
         d="m 93.75,14.7 1.45,1.05 5.95,-3.4 6.6,-0.3 6.6,0.3 5.95,3.4 1.45,-1.05 q 1.45,2.2 1.5,7.2 l -0.3,5.1 -0.5,4.85 V 32 q -0.65,1.65 -1.15,3.4 -3.05,10 0.65,20.05 l 0.7,1.75 0.7,6 q 1,8.65 -4.6,9.35 l -11,0.65 -10.35,-0.55 -0.65,-0.1 q -3.2,-0.4 -4.2,-3.35 -0.85,-2.25 -0.4,-6 l 0.65,-6 0.75,-1.75 Q 97.25,45.4 94.25,35.4 L 93.05,32 V 31.85 L 92.6,27 q -0.3,-2.85 -0.3,-5.1 0,-5 1.45,-7.2 m 1.6,4.45 0.75,7.5 q 1.8,-0.75 3.7,-1.2 3.9,-1 7.95,-1.05 4.15,0.05 7.95,1.05 1.9,0.45 3.7,1.2 l 0.75,-7.5 q 0.05,-3.4 -1.95,-4.1 -2.25,-0.75 -4.75,-1.1 l -5.7,-0.3 -5.7,0.3 q -2.4,0.35 -4.75,1.1 -2,0.7 -1.95,4.1 m 23,13.85 0.65,-4.55 q 0.05,-0.6 -0.4,-0.6 -5.4,-1.65 -10.85,-1.65 -5.45,0 -10.85,1.65 -0.45,0 -0.4,0.6 L 97.15,33 97.8,37.55 Q 97.9,38 98.35,38 l 9.4,-0.85 9.5,0.85 0.45,-0.45 0.65,-4.55 m -20.3,24.7 -0.65,4.2 v 7.3 q 10.25,1.7 20.7,0 v -7.3 l -0.55,-4.2 -0.6,-4.2 q -0.05,-0.4 -0.5,-0.4 l -8.7,0.85 -8.7,-0.85 q -0.35,0 -0.45,0.4 l -0.55,4.2 m 17.1,-12.1 v -2.95 q 0,-1.65 -1.6,-2.05 -2.7,-0.7 -5.8,-0.7 -3.1,0 -5.7,0.7 -1.7,0.4 -1.7,2.05 v 2.95 q 0,1.7 1.7,1.7 h 11.4 q 1.7,0 1.7,-1.7"
         id="path398"
         inkscape:connector-curvature="0"
         style="fill:#2f95d0;stroke:none" />
      <path
         d="m 93.75,14.7 q 1.1,-1.6 2.9,-1.9 l 2.55,-0.3 1.95,-0.15 -5.95,3.4 -1.45,-1.05 m 20.6,-2.35 1.95,0.15 2.6,0.3 q 1.8,0.3 2.85,1.9 l -1.45,1.05 -5.95,-3.4 M 97.15,33 96.5,28.45 q -0.05,-0.6 0.4,-0.6 5.4,-1.65 10.85,-1.65 5.45,0 10.85,1.65 0.45,0 0.4,0.6 L 118.35,33 q -5,-1.2 -10.6,-1.35 -5.6,0.15 -10.6,1.35 m 0.9,24.7 0.55,-4.2 q 0.1,-0.4 0.45,-0.4 l 8.7,0.85 8.7,-0.85 q 0.45,0 0.5,0.4 l 0.6,4.2 q -4.6,1.4 -9.8,1.3 -5.2,0.1 -9.7,-1.3"
         id="path400"
         inkscape:connector-curvature="0"
         style="fill:#ffffff;stroke:none" />
      <path
         d="m 122.45,32 q -0.85,12.4 0.2,25.2 l -0.7,-1.75 Q 118.25,45.4 121.3,35.4 121.8,33.65 122.45,32 M 92.8,57.2 Q 93.9,44.4 93.05,32 l 1.2,3.4 q 3,10 -0.7,20.05 L 92.8,57.2 m 2.55,-38.05 q -0.05,-3.4 1.95,-4.1 2.35,-0.75 4.75,-1.1 l 5.7,-0.3 5.7,0.3 q 2.5,0.35 4.75,1.1 2,0.7 1.95,4.1 l -0.75,7.5 q -1.8,-0.75 -3.7,-1.2 -3.8,-1 -7.95,-1.05 -4.05,0.05 -7.95,1.05 -1.9,0.45 -3.7,1.2 l -0.75,-7.5 M 118.1,61.9 v 7.3 q -10.45,1.7 -20.7,0 v -7.3 q 5.35,2.05 10.35,2.1 5,-0.05 10.35,-2.1"
         id="path402"
         inkscape:connector-curvature="0"
         style="fill:#298dc6;stroke:none" />
      <path
         d="m 118.1,61.9 q -5.35,2.05 -10.35,2.1 -5,-0.05 -10.35,-2.1 l 0.65,-4.2 q 4.5,1.4 9.7,1.3 5.2,0.1 9.8,-1.3 l 0.55,4.2 M 118.35,33 117.7,37.55 117.25,38 107.75,37.15 98.35,38 Q 97.9,38 97.8,37.55 L 97.15,33 q 5,-1.2 10.6,-1.35 5.6,0.15 10.6,1.35 m -3.2,12.6 q 0,1.7 -1.7,1.7 h -11.4 q -1.7,0 -1.7,-1.7 v -2.95 q 0,-1.65 1.7,-2.05 2.6,-0.7 5.7,-0.7 3.1,0 5.8,0.7 1.6,0.4 1.6,2.05 v 2.95"
         id="path404"
         inkscape:connector-curvature="0"
         style="fill:#eeeeee;stroke:none" />
    </g>
  </g>
</svg>
