<?xml version="1.0" encoding="UTF-8" standalone="no"?>
<!-- Created with Inkscape (http://www.inkscape.org/) -->

<svg
   xmlns:dc="http://purl.org/dc/elements/1.1/"
   xmlns:cc="http://creativecommons.org/ns#"
   xmlns:rdf="http://www.w3.org/1999/02/22-rdf-syntax-ns#"
   xmlns:svg="http://www.w3.org/2000/svg"
   xmlns="http://www.w3.org/2000/svg"
   xmlns:sodipodi="http://sodipodi.sourceforge.net/DTD/sodipodi-0.dtd"
   xmlns:inkscape="http://www.inkscape.org/namespaces/inkscape"
   width="48.535553mm"
   height="26.222435mm"
   viewBox="0 0 48.535553 26.222435"
   version="1.1"
   id="svg9996"
   inkscape:version="0.92.1 r15371"
   sodipodi:docname="fish_5.svg">
  <defs
     id="defs9990" />
  <sodipodi:namedview
     id="base"
     pagecolor="#ffffff"
     bordercolor="#666666"
     borderopacity="1.0"
     inkscape:pageopacity="0.0"
     inkscape:pageshadow="2"
     inkscape:zoom="0.98994949"
     inkscape:cx="36.259183"
     inkscape:cy="-258.12442"
     inkscape:document-units="mm"
     inkscape:current-layer="layer1"
     showgrid="false"
     fit-margin-top="0"
     fit-margin-left="0"
     fit-margin-right="0"
     fit-margin-bottom="0" />
  <metadata
     id="metadata9993">
    <rdf:RDF>
      <cc:Work
         rdf:about="">
        <dc:format>image/svg+xml</dc:format>
        <dc:type
           rdf:resource="http://purl.org/dc/dcmitype/StillImage" />
        <dc:title></dc:title>
      </cc:Work>
    </rdf:RDF>
  </metadata>
  <g
     inkscape:label="Layer 1"
     inkscape:groupmode="layer"
     id="layer1"
     transform="translate(269.95228,123.56955)">
    <g
       id="g10618">
      <g
         transform="matrix(3.4395833,0,0,3.4395833,-1002.8662,-518.17001)"
         id="g1236">
        <g
           id="use1234"
           transform="scale(0.26458333)">
          <path
             d="m 817.95,439.55 q -1.75,0 -3.4,1.25 l -7.4,5.15 q -3.6,2.3 0,4.7 l 7.4,5.1 q 1.65,1.15 3.4,1.15 1.15,0 2.3,-1.15 l 4.8,-5.1 q 2.25,-2.4 0,-4.7 l -4.8,-5.15 q -1.15,-1.25 -2.3,-1.25 z"
             id="path10577"
             inkscape:connector-curvature="0"
             style="fill:#ec8d00;stroke:none" />
        </g>
      </g>
      <g
         transform="matrix(3.4395833,0,0,3.4395833,-1002.8662,-518.17001)"
         id="g1240">
        <g
           id="use1238"
           transform="scale(0.26458333)">
          <path
             d="m 843.95,454.9 q 0.1,-0.4 -0.15,-0.8 -0.25,-0.35 -0.6,-0.55 -0.35,-0.2 -0.85,-0.2 -8,0.55 -16.15,-2.65 -0.4,-0.05 -0.85,-0.1 -0.4,0.15 -0.6,0.35 -0.35,0.45 -0.45,0.8 l -1.2,5.95 q -0.15,0.35 0.1,0.75 0.15,0.5 0.6,0.7 7.55,4.1 17.95,3.05 0.45,0 0.8,-0.35 0.35,-0.3 0.45,-0.8 z"
             id="path10581"
             inkscape:connector-curvature="0"
             style="fill:#fcb245;stroke:none" />
        </g>
      </g>
      <g
         transform="matrix(3.4395833,0,0,3.4395833,-1002.8662,-518.17001)"
         id="g1244">
        <g
           id="use1242"
           transform="scale(0.26458333)">
          <path
             d="m 826.2,441.45 q -0.15,0.4 0.05,0.9 l 3.65,7.85 q 0.2,0.45 0.6,0.6 0.45,0.3 0.9,0.15 l 17.6,-3.9 q 0.4,-0.15 0.7,-0.5 0.3,-0.35 0.3,-0.7 V 434.9 q 0,-0.6 -0.35,-0.95 -0.4,-0.35 -1,-0.35 -12.4,0.1 -22,7.1 -0.4,0.35 -0.45,0.75 z"
             id="path10585"
             inkscape:connector-curvature="0"
             style="fill:#fcb245;stroke:none" />
        </g>
      </g>
      <g
         transform="matrix(3.4395833,0,0,3.4395833,-1002.8662,-518.17001)"
         id="g1248">
        <g
           id="use1246"
           transform="scale(0.26458333)">
          <path
             d="m 853.85,454.85 q 6.1,-5.1 4.5,-9 -1.6,-3.8 -5.6,-6 -4.9,-2.75 -12.2,-1.15 -0.05,11.05 8.95,19.3 0.55,-0.3 1.05,-0.6 1.5,-1.05 3.3,-2.55 m -2,-8.6 q 0.75,0 1.2,0.55 0.6,0.55 0.6,1.2 0,0.7 -0.6,1.25 -0.45,0.55 -1.2,0.55 -0.7,0 -1.25,-0.55 -0.5,-0.55 -0.5,-1.25 0,-0.65 0.5,-1.2 0.55,-0.55 1.25,-0.55 z"
             id="path10589"
             inkscape:connector-curvature="0"
             style="fill:#ec8d00;stroke:none" />
          <path
             d="m 853.05,446.8 q -0.45,-0.55 -1.2,-0.55 -0.7,0 -1.25,0.55 -0.5,0.55 -0.5,1.2 0,0.7 0.5,1.25 0.55,0.55 1.25,0.55 0.75,0 1.2,-0.55 0.6,-0.55 0.6,-1.25 0,-0.65 -0.6,-1.2 z"
             id="path10591"
             inkscape:connector-curvature="0"
             style="fill:#cd7b00;stroke:none" />
          <path
             d="m 838.65,439.2 q -5.65,1.75 -11.8,3.75 -6.2,2 -5.95,6.25 0.25,4.2 7.1,7.5 5.15,2.5 12,3.1 5.3,0.35 9.5,-1.8 -9,-8.25 -8.95,-19.3 -0.45,0.05 -0.9,0.2 -0.45,0.15 -1,0.3 z"
             id="path10593"
             inkscape:connector-curvature="0"
             style="fill:#ff9900;stroke:none" />
        </g>
      </g>
      <g
         transform="matrix(3.4395833,0,0,3.4395833,-1002.8662,-518.17001)"
         id="g1252">
        <g
           id="use1250"
           transform="scale(0.26458333)">
          <path
             d="m 838.9,455.85 0.95,-2.85 q 0.05,-0.25 0.05,-0.45 -0.15,-0.3 -0.35,-0.45 -0.25,-0.2 -0.45,-0.15 -4.7,-0.25 -9.3,-1.65 -0.25,0 -0.45,0 -0.25,0.1 -0.4,0.3 -0.15,0.15 -0.25,0.4 l -0.2,1.7 q -0.05,0.3 0.05,0.5 0.15,0.25 0.4,0.35 4.15,2.2 9,2.9 0.35,0 0.65,-0.15 0.2,-0.15 0.3,-0.45 z"
             id="path10597"
             inkscape:connector-curvature="0"
             style="fill:#ec8d00;stroke:none" />
        </g>
      </g>
    </g>
  </g>
</svg>
