<?xml version="1.0" encoding="UTF-8" standalone="no"?>
<!-- Created with Inkscape (http://www.inkscape.org/) -->

<svg
   xmlns:dc="http://purl.org/dc/elements/1.1/"
   xmlns:cc="http://creativecommons.org/ns#"
   xmlns:rdf="http://www.w3.org/1999/02/22-rdf-syntax-ns#"
   xmlns:svg="http://www.w3.org/2000/svg"
   xmlns="http://www.w3.org/2000/svg"
   xmlns:sodipodi="http://sodipodi.sourceforge.net/DTD/sodipodi-0.dtd"
   xmlns:inkscape="http://www.inkscape.org/namespaces/inkscape"
   width="47.709705mm"
   height="46.549385mm"
   viewBox="0 0 47.709705 46.549385"
   version="1.1"
   id="svg10668"
   inkscape:version="0.92.1 r15371"
   sodipodi:docname="fish_6.svg">
  <defs
     id="defs10662" />
  <sodipodi:namedview
     id="base"
     pagecolor="#ffffff"
     bordercolor="#666666"
     borderopacity="1.0"
     inkscape:pageopacity="0.0"
     inkscape:pageshadow="2"
     inkscape:zoom="0.35"
     inkscape:cx="684.44562"
     inkscape:cy="-260.60408"
     inkscape:document-units="mm"
     inkscape:current-layer="layer1"
     showgrid="false"
     fit-margin-top="0"
     fit-margin-left="0"
     fit-margin-right="0"
     fit-margin-bottom="0" />
  <metadata
     id="metadata10665">
    <rdf:RDF>
      <cc:Work
         rdf:about="">
        <dc:format>image/svg+xml</dc:format>
        <dc:type
           rdf:resource="http://purl.org/dc/dcmitype/StillImage" />
        <dc:title></dc:title>
      </cc:Work>
    </rdf:RDF>
  </metadata>
  <g
     inkscape:label="Layer 1"
     inkscape:groupmode="layer"
     id="layer1"
     transform="translate(297.50957,-33.332452)">
    <g
       id="g11233"
       transform="matrix(3.4395833,0,0,3.4395833,-1205.5866,-438.48629)">
      <g
         id="g1528">
        <g
           transform="scale(0.26458333)"
           id="use1526">
          <path
             style="fill:#e2d9ae;stroke:none"
             inkscape:connector-curvature="0"
             id="path11331"
             d="m 1030.05,564.2 q -0.1,-0.2 -0.25,-0.35 -1.95,-1.25 -3.65,0.05 -0.2,0.1 -0.25,0.3 -0.05,0.25 0,0.45 l 1.45,4.45 q 0.05,0.2 0.25,0.35 0.15,0.15 0.4,0.15 0.2,0 0.4,-0.15 0.15,-0.15 0.25,-0.35 l 1.4,-4.45 q 0.05,-0.25 0,-0.45 z" />
        </g>
      </g>
      <g
         id="g1532">
        <g
           transform="scale(0.26458333)"
           id="use1530">
          <path
             style="fill:#a16e39;stroke:none"
             inkscape:connector-curvature="0"
             id="path11335"
             d="m 1027.2,518.7 q -0.15,0.1 -0.25,0.3 l -1.45,4.45 q -0.05,0.15 0.05,0.45 0.05,0.2 0.2,0.3 1.65,1.3 3.65,0.05 0.15,-0.15 0.3,-0.35 0,-0.25 -0.05,-0.5 l -1.4,-4.4 q -0.1,-0.2 -0.25,-0.35 -0.25,-0.15 -0.4,-0.2 -0.25,0.05 -0.4,0.25 z" />
        </g>
      </g>
      <g
         id="g1536">
        <g
           transform="scale(0.26458333)"
           id="use1534">
          <path
             style="fill:#a16e39;stroke:none"
             inkscape:connector-curvature="0"
             id="path11339"
             d="m 1014.15,539.95 q 2.45,-2.35 0,-4.7 l -5.1,-5.05 q -2.45,-2.35 -4.85,0 l -5.15,5.05 q -2.45,2.35 0,4.7 l 5.15,5.05 q 2.4,2.35 4.85,0 z" />
        </g>
      </g>
      <g
         id="g1540">
        <g
           transform="scale(0.26458333)"
           id="use1538">
          <path
             style="fill:#eee4b7;stroke:none"
             inkscape:connector-curvature="0"
             id="path11343"
             d="m 1050.1,541.6 q -10.05,4.05 -20.2,-0.65 -0.3,-0.2 -0.7,-0.35 -11.05,-5.5 -22.5,-0.35 -0.05,0.15 -0.05,0.35 -0.3,1.75 -0.3,3.7 0,9.1 6.4,15.5 6.45,6.45 15.55,6.45 9.1,0 15.5,-6.45 5.6,-5.6 6.35,-13.2 0.1,-1.15 0.1,-2.3 0,-1.4 -0.15,-2.7 z" />
          <path
             style="fill:#c48647;stroke:none"
             inkscape:connector-curvature="0"
             id="path11345"
             d="m 1050.1,541.6 q -0.85,-7.4 -6.3,-12.85 -4.2,-4.2 -9.55,-5.65 -2.85,-0.75 -5.95,-0.75 -9.1,0 -15.55,6.4 -4.9,4.95 -6.05,11.5 11.45,-5.15 22.5,0.35 0.4,0.15 0.7,0.35 10.15,4.7 20.2,0.65 z" />
        </g>
      </g>
      <g
         id="g1544">
        <g
           transform="scale(0.26458333)"
           id="use1542">
          <path
             style="fill:#a16e39;stroke:none"
             inkscape:connector-curvature="0"
             id="path11349"
             d="m 1039.9,533.9 q -0.5,0.55 -0.5,1.2 0,0.7 0.5,1.25 0.55,0.55 1.25,0.55 0.75,0 1.2,-0.55 0.6,-0.55 0.6,-1.25 0,-0.65 -0.6,-1.2 -0.45,-0.55 -1.2,-0.55 -0.7,0 -1.25,0.55 z" />
        </g>
      </g>
      <g
         id="g1548">
        <g
           transform="scale(0.26458333)"
           id="use1546">
          <path
             style="fill:#a16e39;stroke:none"
             inkscape:connector-curvature="0"
             id="path11353"
             d="m 1031.85,541.2 v -5.75 q 0,-0.35 -0.15,-0.6 -0.2,-0.25 -0.5,-0.35 -4.25,-1.5 -8.45,-0.9 -0.3,0 -0.5,0.2 -0.2,0.15 -0.3,0.4 -2.7,6.3 0,12.65 0.15,0.35 0.5,0.55 0.35,0.15 0.75,0 4.65,-1.55 8.4,-5.5 0.25,-0.3 0.25,-0.7 z" />
        </g>
      </g>
      <g
         id="g1552">
        <g
           transform="scale(0.26458333)"
           id="use1550">
          <path
             style="fill:#e2d9ae;stroke:none"
             inkscape:connector-curvature="0"
             id="path11357"
             d="m 1040.75,559.8 q -0.05,0.2 0.05,0.35 0.15,0.25 0.3,0.35 l 4.15,2.1 q 0.2,0.1 0.45,0.05 0.2,0.05 0.4,-0.1 0.1,-0.15 0.15,-0.45 0,-0.2 -0.05,-0.4 l -2.15,-4.1 q -0.15,-0.25 -0.3,-0.35 -0.25,-0.1 -0.45,-0.1 -2.3,0.55 -2.55,2.65 z" />
        </g>
      </g>
      <g
         id="g1556">
        <g
           transform="scale(0.26458333)"
           id="use1554">
          <path
             style="fill:#e2d9ae;stroke:none"
             inkscape:connector-curvature="0"
             id="path11361"
             d="m 1008.1,560.1 q -0.05,0.2 0.1,0.4 0.15,0.1 0.45,0.15 0.2,0 0.4,-0.05 l 4.1,-2.15 q 0.25,-0.15 0.35,-0.3 0.1,-0.25 0.1,-0.45 -0.55,-2.3 -2.65,-2.55 -0.2,-0.05 -0.35,0.05 -0.25,0.15 -0.35,0.3 l -2.1,4.15 q -0.1,0.2 -0.05,0.45 z" />
        </g>
      </g>
      <g
         id="g1560">
        <g
           transform="scale(0.26458333)"
           id="use1558">
          <path
             style="fill:#a16e39;stroke:none"
             inkscape:connector-curvature="0"
             id="path11365"
             d="m 1018.3,525.5 q -0.15,-0.25 -0.3,-0.35 l -4.15,-2.1 q -0.2,-0.1 -0.45,-0.05 -0.2,-0.05 -0.4,0.1 -0.1,0.15 -0.15,0.45 0,0.2 0.05,0.4 l 2.15,4.1 q 0.15,0.25 0.3,0.35 0.25,0.1 0.45,0.1 2.3,-0.55 2.55,-2.65 0.05,-0.2 -0.05,-0.35 z" />
        </g>
      </g>
      <g
         id="g1564">
        <g
           transform="scale(0.26458333)"
           id="use1562">
          <path
             style="fill:#a16e39;stroke:none"
             inkscape:connector-curvature="0"
             id="path11369"
             d="m 1043.45,523.1 q -0.2,-0.15 -0.4,-0.1 -0.25,-0.05 -0.45,0.05 l -4.15,2.1 q -0.15,0.1 -0.3,0.35 -0.1,0.15 -0.05,0.35 0.25,2.1 2.55,2.65 0.2,0 0.45,-0.1 0.15,-0.1 0.3,-0.35 l 2.15,-4.1 q 0.05,-0.2 0.05,-0.4 -0.05,-0.3 -0.15,-0.45 z" />
        </g>
      </g>
    </g>
  </g>
</svg>
