<?xml version="1.0" encoding="UTF-8" standalone="no"?>
<!-- Created with Inkscape (http://www.inkscape.org/) -->

<svg
   xmlns:dc="http://purl.org/dc/elements/1.1/"
   xmlns:cc="http://creativecommons.org/ns#"
   xmlns:rdf="http://www.w3.org/1999/02/22-rdf-syntax-ns#"
   xmlns:svg="http://www.w3.org/2000/svg"
   xmlns="http://www.w3.org/2000/svg"
   xmlns:sodipodi="http://sodipodi.sourceforge.net/DTD/sodipodi-0.dtd"
   xmlns:inkscape="http://www.inkscape.org/namespaces/inkscape"
   width="51.599136mm"
   height="29.178684mm"
   viewBox="0 0 51.599136 29.178684"
   version="1.1"
   id="svg8594"
   inkscape:version="0.92.1 r15371"
   sodipodi:docname="fish_3.svg">
  <defs
     id="defs8588" />
  <sodipodi:namedview
     id="base"
     pagecolor="#ffffff"
     bordercolor="#666666"
     borderopacity="1.0"
     inkscape:pageopacity="0.0"
     inkscape:pageshadow="2"
     inkscape:zoom="0.35"
     inkscape:cx="46.081634"
     inkscape:cy="-570.57344"
     inkscape:document-units="mm"
     inkscape:current-layer="layer1"
     showgrid="false"
     fit-margin-top="0"
     fit-margin-left="0"
     fit-margin-right="0"
     fit-margin-bottom="0" />
  <metadata
     id="metadata8591">
    <rdf:RDF>
      <cc:Work
         rdf:about="">
        <dc:format>image/svg+xml</dc:format>
        <dc:type
           rdf:resource="http://purl.org/dc/dcmitype/StillImage" />
        <dc:title></dc:title>
      </cc:Work>
    </rdf:RDF>
  </metadata>
  <g
     inkscape:label="Layer 1"
     inkscape:groupmode="layer"
     id="layer1"
     transform="translate(128.6091,31.309574)">
    <g
       id="g9149"
       transform="matrix(3.4395833,0,0,3.4395833,-510.53702,-424.45394)">
      <g
         id="g1184">
        <g
           transform="scale(0.26458333)"
           id="use1182">
          <path
             style="fill:#2f8ac6;stroke:none"
             inkscape:connector-curvature="0"
             id="path9208"
             d="m 443.15,453.45 -1.95,3.95 q -0.15,0.2 -0.05,0.55 0,0.35 0.25,0.6 4.55,4.25 11.95,5.5 0.35,0.05 0.65,-0.1 0.3,-0.15 0.45,-0.5 l 1.8,-4.1 q 0.15,-0.25 0.05,-0.6 -0.05,-0.3 -0.3,-0.5 -0.2,-0.2 -0.55,-0.3 -5.7,-1.1 -10.8,-4.85 -0.25,-0.15 -0.55,-0.25 -0.3,0.05 -0.5,0.15 -0.3,0.2 -0.45,0.45 z" />
        </g>
      </g>
      <g
         id="g1188">
        <g
           transform="scale(0.26458333)"
           id="use1186">
          <path
             style="fill:#2f8ac6;stroke:none"
             inkscape:connector-curvature="0"
             id="path9212"
             d="m 428.6,440.15 q -1.25,0 -2.5,1.2 l -5.2,5.15 q -2.45,2.35 0,4.75 l 5.2,5.15 q 1.25,1.15 2.5,1.15 1.9,0 3.7,-1.15 l 8.05,-5.15 q 3.8,-2.4 0,-4.75 l -8.05,-5.15 q -1.8,-1.2 -3.7,-1.2 z" />
        </g>
      </g>
      <g
         id="g1192">
        <g
           transform="scale(0.26458333)"
           id="use1190">
          <path
             style="fill:#2f8ac6;stroke:none"
             inkscape:connector-curvature="0"
             id="path9216"
             d="m 463.9,442.65 v -9.55 q 0,-0.5 -0.3,-0.8 -0.35,-0.3 -0.85,-0.3 -10.85,0.05 -19.2,6.2 -0.35,0.25 -0.4,0.65 -0.1,0.35 0.05,0.75 l 3.2,6.85 q 0.15,0.4 0.55,0.55 0.35,0.25 0.75,0.1 l 15.35,-3.4 q 0.35,-0.1 0.65,-0.4 0.2,-0.3 0.2,-0.65 z" />
        </g>
      </g>
      <g
         id="g1196">
        <g
           transform="scale(0.26458333)"
           id="use1194">
          <path
             style="fill:#3498db;stroke:none"
             inkscape:connector-curvature="0"
             id="path9220"
             d="m 456.95,439.2 q -0.15,0 -0.35,0 -9.1,0.15 -15.65,2.9 -6.85,2.9 -6.85,7.05 0,4.1 6.85,7 6.55,2.8 15.65,2.9 0.2,0 0.35,0 -3.65,-10.2 0,-19.85 z" />
          <path
             style="fill:#37a5ee;stroke:none"
             inkscape:connector-curvature="0"
             id="path9222"
             d="m 460.35,439.4 q -3.3,-0.2 -3.4,-0.2 -3.65,9.65 0,19.85 0.1,0 0.2,0 6.85,-0.1 14,-4.6 7.1,-4.5 4.55,-7 -2.6,-2.45 -7.35,-5.2 -4.8,-2.7 -8,-2.85 m 5.55,7.4 q 0.45,-0.45 1.05,-0.45 0.65,0 1.1,0.45 0.45,0.45 0.45,1.05 0,0.6 -0.45,1.05 -0.45,0.45 -1.1,0.45 -0.6,0 -1.05,-0.45 -0.45,-0.45 -0.45,-1.05 0,-0.6 0.45,-1.05 z" />
          <path
             style="fill:#2c84bf;stroke:none"
             inkscape:connector-curvature="0"
             id="path9224"
             d="m 466.95,446.35 q -0.6,0 -1.05,0.45 -0.45,0.45 -0.45,1.05 0,0.6 0.45,1.05 0.45,0.45 1.05,0.45 0.65,0 1.1,-0.45 0.45,-0.45 0.45,-1.05 0,-0.6 -0.45,-1.05 -0.45,-0.45 -1.1,-0.45 z" />
        </g>
      </g>
      <g
         id="g1200">
        <g
           transform="scale(0.26458333)"
           id="use1198">
          <path
             style="fill:#2f8ac6;stroke:none"
             inkscape:connector-curvature="0"
             id="path9228"
             d="m 458.85,455.6 0.2,-3.65 q 0,-0.3 -0.1,-0.55 -0.25,-0.25 -0.55,-0.4 -0.3,-0.15 -0.55,-0.05 -5.55,1.2 -11.4,1 -0.3,0.05 -0.55,0.15 -0.25,0.2 -0.4,0.45 -0.15,0.25 -0.15,0.55 l 0.3,2.1 q 0.05,0.35 0.25,0.55 0.2,0.25 0.55,0.3 5.55,1.2 11.45,0.5 0.45,-0.05 0.7,-0.35 0.25,-0.2 0.25,-0.6 z" />
        </g>
      </g>
    </g>
  </g>
</svg>
