<?xml version="1.0" encoding="UTF-8" standalone="no"?>
<!-- Created with Inkscape (http://www.inkscape.org/) -->

<svg
   xmlns:dc="http://purl.org/dc/elements/1.1/"
   xmlns:cc="http://creativecommons.org/ns#"
   xmlns:rdf="http://www.w3.org/1999/02/22-rdf-syntax-ns#"
   xmlns:svg="http://www.w3.org/2000/svg"
   xmlns="http://www.w3.org/2000/svg"
   xmlns:sodipodi="http://sodipodi.sourceforge.net/DTD/sodipodi-0.dtd"
   xmlns:inkscape="http://www.inkscape.org/namespaces/inkscape"
   width="50.644638mm"
   height="39.569252mm"
   viewBox="0 0 50.644638 39.569252"
   version="1.1"
   id="svg9275"
   inkscape:version="0.92.1 r15371"
   sodipodi:docname="fish_4.svg">
  <defs
     id="defs9269" />
  <sodipodi:namedview
     id="base"
     pagecolor="#ffffff"
     bordercolor="#666666"
     borderopacity="1.0"
     inkscape:pageopacity="0.0"
     inkscape:pageshadow="2"
     inkscape:zoom="0.7"
     inkscape:cx="302.1822"
     inkscape:cy="-113.91837"
     inkscape:document-units="mm"
     inkscape:current-layer="layer1"
     showgrid="false"
     fit-margin-top="0"
     fit-margin-left="0"
     fit-margin-right="0"
     fit-margin-bottom="0" />
  <metadata
     id="metadata9272">
    <rdf:RDF>
      <cc:Work
         rdf:about="">
        <dc:format>image/svg+xml</dc:format>
        <dc:type
           rdf:resource="http://purl.org/dc/dcmitype/StillImage" />
        <dc:title></dc:title>
      </cc:Work>
    </rdf:RDF>
  </metadata>
  <g
     inkscape:label="Layer 1"
     inkscape:groupmode="layer"
     id="layer1"
     transform="translate(407.83422,14.582248)">
    <g
       id="g9897">
      <g
         transform="matrix(3.4395833,0,0,3.4395833,-964.97075,-402.49379)"
         id="g1212">
        <g
           id="use1210"
           transform="scale(0.26458333)">
          <path
             d="m 625.1,439.55 q -1.85,-1.65 -3.8,-1.65 -1.25,0 -2.55,1.65 l -5.3,7 q -2.5,3.15 0,6.4 l 5.3,6.95 q 1.3,1.55 2.55,1.55 1.95,0 3.8,-1.55 l 8.2,-6.95 q 3.95,-3.25 0,-6.4 z"
             id="path9856"
             inkscape:connector-curvature="0"
             style="fill:#bf3d31;stroke:none" />
        </g>
      </g>
      <g
         transform="matrix(3.4395833,0,0,3.4395833,-964.97075,-402.49379)"
         id="g1216">
        <g
           id="use1214"
           transform="scale(0.26458333)">
          <path
             d="m 655.85,459.7 q -0.4,-0.25 -1,-0.25 -9.05,0.65 -18.25,-2.95 -0.45,-0.1 -0.95,-0.15 -0.45,0.2 -0.7,0.4 -0.35,0.5 -0.5,0.9 l -1.35,6.75 q -0.15,0.4 0.15,0.85 0.15,0.55 0.65,0.8 8.55,4.6 20.3,3.45 0.5,-0.05 0.9,-0.4 0.4,-0.35 0.5,-0.95 l 1.05,-6.9 q 0.15,-0.45 -0.15,-0.95 -0.25,-0.4 -0.65,-0.6 z"
             id="path9860"
             inkscape:connector-curvature="0"
             style="fill:#bf3d31;stroke:none" />
        </g>
      </g>
      <g
         transform="matrix(3.4395833,0,0,3.4395833,-964.97075,-402.49379)"
         id="g1220">
        <g
           id="use1218"
           transform="scale(0.26458333)">
          <path
             d="m 657.6,441.65 q 0.5,-0.15 0.85,-0.55 0.3,-0.4 0.3,-0.85 V 427.7 q 0,-0.65 -0.4,-1.05 -0.45,-0.4 -1.1,-0.4 -14.25,0.1 -25.25,8.15 -0.45,0.35 -0.5,0.85 -0.15,0.45 0.05,1 l 4.2,9 q 0.2,0.5 0.7,0.7 0.5,0.35 1,0.15 z"
             id="path9864"
             inkscape:connector-curvature="0"
             style="fill:#bf3d31;stroke:none" />
        </g>
      </g>
      <g
         transform="matrix(3.4395833,0,0,3.4395833,-964.97075,-402.49379)"
         id="g1224">
        <g
           id="use1222"
           transform="scale(0.26458333)">
          <path
             d="m 654.7,465.55 q -3.3,-15.05 0,-30.95 -10.85,0.75 -19.15,4.3 -10.5,4.6 -10.5,11.15 0,6.5 10.5,11.05 8.3,3.6 19.15,4.45 z"
             id="path9868"
             inkscape:connector-curvature="0"
             style="fill:#e74c3c;stroke:none" />
          <path
             d="m 657.15,434.45 q -1.2,0.05 -2.45,0.15 -3.3,15.9 0,30.95 1.25,0.05 2.45,0.1 1,0.05 2,0.05 0.45,0 0.95,0 h 0.05 q 0.1,0 0.25,0 2.95,-0.25 5.15,-4.6 2.3,-4.55 2.3,-11.05 0,-6.55 -2.3,-11.15 -2.2,-4.25 -5.15,-4.5 v -0.05 q -0.15,0 -0.25,0 h -0.05 q -0.5,0 -0.95,0.05 -1,0 -2,0.05 m 6.25,13.8 q -0.5,0.65 -1.35,0.65 -0.75,0 -1.35,-0.65 -0.55,-0.55 -0.55,-1.35 0,-0.75 0.55,-1.35 0.6,-0.6 1.35,-0.6 0.85,0 1.35,0.6 0.65,0.6 0.65,1.35 0,0.8 -0.65,1.35 z"
             id="path9870"
             inkscape:connector-curvature="0"
             style="fill:#f5503f;stroke:none" />
          <path
             d="m 662.05,448.9 q 0.85,0 1.35,-0.65 0.65,-0.55 0.65,-1.35 0,-0.75 -0.65,-1.35 -0.5,-0.6 -1.35,-0.6 -0.75,0 -1.35,0.6 -0.55,0.6 -0.55,1.35 0,0.8 0.55,1.35 0.6,0.65 1.35,0.65 z"
             id="path9872"
             inkscape:connector-curvature="0"
             style="fill:#bf3d31;stroke:none" />
        </g>
      </g>
      <g
         transform="matrix(3.4395833,0,0,3.4395833,-964.97075,-402.49379)"
         id="g1228">
        <g
           id="use1226"
           transform="scale(0.26458333)">
          <path
             d="m 649.9,451.5 q -0.25,-0.45 -0.6,-0.75 -0.35,-0.3 -0.75,-0.25 -7.9,-0.4 -15.7,-2.75 -0.45,-0.05 -0.8,0 -0.4,0.15 -0.7,0.45 -0.25,0.3 -0.4,0.7 l -0.35,2.9 q -0.05,0.5 0.1,0.85 0.25,0.4 0.65,0.6 7.1,3.65 15.3,4.85 0.6,0.05 1.05,-0.25 0.4,-0.2 0.5,-0.75 l 1.65,-4.8 q 0.1,-0.4 0.05,-0.8 z"
             id="path9876"
             inkscape:connector-curvature="0"
             style="fill:#bf3d31;stroke:none" />
        </g>
      </g>
    </g>
  </g>
</svg>
