<?xml version="1.0" encoding="UTF-8" standalone="no"?>
<!-- Created with Inkscape (http://www.inkscape.org/) -->

<svg
   xmlns:dc="http://purl.org/dc/elements/1.1/"
   xmlns:cc="http://creativecommons.org/ns#"
   xmlns:rdf="http://www.w3.org/1999/02/22-rdf-syntax-ns#"
   xmlns:svg="http://www.w3.org/2000/svg"
   xmlns="http://www.w3.org/2000/svg"
   xmlns:sodipodi="http://sodipodi.sourceforge.net/DTD/sodipodi-0.dtd"
   xmlns:inkscape="http://www.inkscape.org/namespaces/inkscape"
   width="12.7mm"
   height="55.033329mm"
   viewBox="0 0 12.7 55.03333"
   version="1.1"
   id="svg6742"
   sodipodi:docname="paddle-v-red.svg"
   inkscape:version="0.92.1 r15371">
  <defs
     id="defs6736" />
  <sodipodi:namedview
     id="base"
     pagecolor="#ffffff"
     bordercolor="#666666"
     borderopacity="1.0"
     inkscape:pageopacity="0.0"
     inkscape:pageshadow="2"
     inkscape:zoom="2.8"
     inkscape:cx="-40.040637"
     inkscape:cy="164.25468"
     inkscape:document-units="mm"
     inkscape:current-layer="layer1"
     showgrid="false"
     fit-margin-top="0"
     fit-margin-left="0"
     fit-margin-right="0"
     fit-margin-bottom="0" />
  <metadata
     id="metadata6739">
    <rdf:RDF>
      <cc:Work
         rdf:about="">
        <dc:format>image/svg+xml</dc:format>
        <dc:type
           rdf:resource="http://purl.org/dc/dcmitype/StillImage" />
        <dc:title></dc:title>
      </cc:Work>
    </rdf:RDF>
  </metadata>
  <g
     inkscape:label="Layer 1"
     inkscape:groupmode="layer"
     id="layer1"
     transform="translate(-169.03095,-1.876201)">
    <g
       id="g7478"
       transform="rotate(90,175.38095,29.392861)">
      <path
         id="path7424"
         d="m 155.29908,24.101194 h -1.16417 c -1.44639,0 -2.68111,0.51153 -3.70417,1.534583 l -0.13229,0.15875 c -0.91722,1.005417 -1.37583,2.204863 -1.37583,3.598334 0,1.464024 0.50271,2.707571 1.50812,3.730625 1.02306,1.04069 2.25778,1.561041 3.70417,1.561041 h 5.29167 v 1.058334 h -5.29167 c -1.74625,0 -3.22792,-0.626174 -4.445,-1.878542 -1.21708,-1.234721 -1.82562,-2.725208 -1.82562,-4.471458 0,-1.658054 0.5468,-3.086809 1.64041,-4.28625 l 0.15875,-0.211667 c 0.67028,-0.670274 1.41111,-1.15534 2.2225,-1.455208 0.68792,-0.264584 1.43756,-0.396875 2.24896,-0.396875 h 5.29167 v 1.058333 z"
         style="fill:#9d0d0d;stroke-width:0.52916664;stroke-linecap:round;stroke-linejoin:round"
         inkscape:connector-curvature="0" />
      <path
         id="path7422"
         d="m 149.66345,24.894944 h 0.0265 z"
         style="fill:#9d0d0d;stroke-width:0.52916664;stroke-linecap:round;stroke-linejoin:round"
         inkscape:connector-curvature="0" />
      <path
         id="path7420"
         d="m 191.30887,24.101194 v -1.058333 h 5.29167 c 0.8114,0 1.56106,0.132291 2.24895,0.396875 0.81141,0.299868 1.54342,0.784934 2.19605,1.455208 1.2347,1.234726 1.85208,2.734045 1.85208,4.497917 0,1.763892 -0.62619,3.263212 -1.87854,4.497916 -1.19944,1.234726 -2.67229,1.852084 -4.41854,1.852084 h -5.29167 v -1.058334 h 5.29167 c 1.44637,0 2.67227,-0.520351 3.6777,-1.561041 1.0407,-1.023054 1.56105,-2.266601 1.56105,-3.730625 0,-1.464025 -0.52035,-2.716387 -1.56105,-3.757084 -1.00541,-1.023053 -2.23128,-1.534583 -3.6777,-1.534583 h -1.13771 z"
         style="fill:#9d0d0d;stroke-width:0.52916664;stroke-linecap:round;stroke-linejoin:round"
         inkscape:connector-curvature="0" />
      <path
         id="path482"
         d="m 201.01908,33.890777 0.0265,-0.02646 z"
         style="fill:#9d0d0d;stroke-width:0.52916664;stroke-linecap:round;stroke-linejoin:round"
         inkscape:connector-curvature="0" />
      <path
         id="path7412"
         d="m 154.13491,24.101194 h 1.16417 c -1.37585,0.0353 -2.55765,0.54682 -3.54542,1.534583 l -0.13229,0.15875 c -0.91722,1.005417 -1.37583,2.204863 -1.37583,3.598334 h 9.18104 v 5.291666 h -5.29167 c -1.44639,0 -2.68111,-0.520351 -3.70417,-1.561041 -1.00541,-1.023054 -1.50812,-2.266601 -1.50812,-3.730625 0,-1.393471 0.45861,-2.592917 1.37583,-3.598334 l 0.13229,-0.15875 c 1.02306,-1.023053 2.25778,-1.534583 3.70417,-1.534583 z"
         style="fill:#de1010;stroke-width:0.52916664;stroke-linecap:round;stroke-linejoin:round"
         inkscape:connector-curvature="0" />
      <path
         id="path484"
         d="m 191.30887,34.684527 v -5.291666 h 9.2075 c 0,-1.464025 -0.52035,-2.716387 -1.56104,-3.757084 -0.97012,-0.987779 -2.13431,-1.499314 -3.4925,-1.534583 h 1.13771 c 1.44637,0 2.67227,0.51153 3.6777,1.534583 1.0407,1.040697 1.56105,2.293059 1.56105,3.757084 0,1.464024 -0.52035,2.707571 -1.56105,3.730625 -1.00541,1.04069 -2.23128,1.561041 -3.6777,1.561041 z"
         style="fill:#de1010;stroke-width:0.52916664;stroke-linecap:round;stroke-linejoin:round"
         inkscape:connector-curvature="0" />
      <path
         style="fill:#d0d0d0;stroke-width:0.52916664;stroke-linecap:round;stroke-linejoin:round"
         inkscape:connector-curvature="0"
         id="path486"
         d="m 159.42658,34.684527 v -5.291666 h 31.88229 v 5.291666 z" />
      <path
         id="path7416"
         d="m 159.42658,29.392861 h -9.18104 c 0,-1.393471 0.45861,-2.592917 1.37583,-3.598334 l 0.13229,-0.15875 c 0.98778,-0.987779 2.16958,-1.499314 3.54542,-1.534583 h 4.1275 z"
         style="fill:#f23737;stroke-width:0.52916664;stroke-linecap:round;stroke-linejoin:round"
         inkscape:connector-curvature="0" />
      <path
         id="path488"
         d="m 191.30887,29.392861 v -5.291667 h 4.15396 c 1.35819,0.0353 2.52238,0.54682 3.4925,1.534583 1.04069,1.040697 1.56104,2.293059 1.56104,3.757084 z"
         style="fill:#f23737;stroke-width:0.52916664;stroke-linecap:round;stroke-linejoin:round"
         inkscape:connector-curvature="0" />
      <path
         id="path7408"
         d="m 159.42658,24.101194 v -1.058333 h 31.88229 v 1.058333 z"
         style="fill:#aaaaaa;stroke-width:0.52916664;stroke-linecap:round;stroke-linejoin:round"
         inkscape:connector-curvature="0" />
      <path
         id="path490"
         d="m 159.42658,35.742861 v -1.058334 h 31.88229 v 1.058334 z"
         style="fill:#aaaaaa;stroke-width:0.52916664;stroke-linecap:round;stroke-linejoin:round"
         inkscape:connector-curvature="0" />
      <path
         style="fill:#d9d9d9;stroke-width:0.52916664;stroke-linecap:round;stroke-linejoin:round"
         inkscape:connector-curvature="0"
         id="path492"
         d="m 191.30887,29.392861 h -31.88229 v -5.291667 h 31.88229 z" />
    </g>
  </g>
</svg>
